exII3/wave.vcd
$date
  Wed Nov 22 21:07:52 2017
$end
$version
  GHDL v0
$end
$timescale
  1 fs
$end
$var reg 1 ! clk_tb $end
$var reg 1 " res_tb $end
$var reg 8 # out_tb[7:0] $end
$var reg 256 $ sequence[255:0] $end
$scope module duv $end
$var reg 1 % clk_i $end
$var reg 1 & rst_i $end
$var reg 8 ' out_o[7:0] $end
$var reg 1 ( msb $end
$var reg 1 ) new_msb $end
$var reg 8 * shift_reg_s[7:0] $end
$var reg 8 + n_shift_reg_s[7:0] $end
$upscope $end
$enddefinitions $end
#0
1!
1"
b00000000 #
b0000000000000000000000000000000000000000000000000000000000000000000000000000000000000000000000000000000000000000000000000000000000000000000000000000000000000000000000000000000000000000000000000000000000000000000000000000000000000000000000000000000000000000 $
1%
1&
b00000000 '
0(
1)
b00000000 *
b11111111 +
#10000000
0!
0"
0%
0&
#20000000
1!
b10000000 #
1%
b10000000 '
0)
b10000000 *
b01111111 +
#30000000
0!
b0000000000000000000000000000000000000000000000000000000000000000000000000000000000000000000000000000000000000000000000000000000100000000000000000000000000000000000000000000000000000000000000000000000000000000000000000000000000000000000000000000000000000000 $
0%
#40000000
1!
b01000000 #
1%
b01000000 '
b01000000 *
b10111111 +
#50000000
0!
b0000000000000000000000000000000000000000000000000000000000000000000000000000000000000000000000000000000000000000000000000000000100000000000000000000000000000000000000000000000000000000000000010000000000000000000000000000000000000000000000000000000000000000 $
0%
#60000000
1!
b00100000 #
1%
b00100000 '
b00100000 *
b11011111 +
#70000000
0!
b0000000000000000000000000000000000000000000000000000000000000000000000000000000000000000000000000000000000000000000000000000000100000000000000000000000000000000000000000000000000000000000000010000000000000000000000000000000100000000000000000000000000000000 $
0%
#80000000
1!
b00010000 #
1%
b00010000 '
1(
1)
b00010000 *
b11101111 +
#90000000
0!
b0000000000000000000000000000000000000000000000000000000000000000000000000000000000000000000000000000000000000000000000000000000100000000000000000000000000000000000000000000000000000000000000010000000000000000000000000000000100000000000000010000000000000000 $
0%
#100000000
1!
b10001000 #
1%
b10001000 '
b10001000 *
b01110111 +
#110000000
0!
b0000000000000000000000000000000000000000000000000000000000000000000000000000000000000000000000000000000000000000000000010000000100000000000000000000000000000000000000000000000000000000000000010000000000000000000000000000000100000000000000010000000000000000 $
0%
#120000000
1!
b11000100 #
1%
b11000100 '
b11000100 *
b00111011 +
#130000000
0!
b0000000000000000000000000000000000000000000000000000000000010000000000000000000000000000000000000000000000000000000000010000000100000000000000000000000000000000000000000000000000000000000000010000000000000000000000000000000100000000000000010000000000000000 $
0%
#140000000
1!
b11100010 #
1%
b11100010 '
0(
0)
b11100010 *
b00011101 +
#150000000
0!
b0000000000000000000000000000010000000000000000000000000000010000000000000000000000000000000000000000000000000000000000010000000100000000000000000000000000000000000000000000000000000000000000010000000000000000000000000000000100000000000000010000000000000000 $
0%
#160000000
1!
b01110001 #
1%
b01110001 '
b01110001 *
b10001110 +
#170000000
0!
b0000000000000000000000000000010000000000000000000000000000010000000000000000000000000000000000000000000000000000000000010000000100000000000000100000000000000000000000000000000000000000000000010000000000000000000000000000000100000000000000010000000000000000 $
0%
#180000000
1!
b00111000 #
1%
b00111000 '
b00111000 *
b11000111 +
#190000000
0!
b0000000000000000000000000000010000000000000000000000000000010000000000000000000000000000000000000000000000000000000000010000000100000000000000100000000000000000000000000000000000000000000000010000000100000000000000000000000100000000000000010000000000000000 $
0%
#200000000
1!
b00011100 #
1%
b00011100 '
1(
1)
b00011100 *
b11100011 +
#210000000
0!
b0000000000000000000000000000010000000000000000000000000000010000000000000000000000000000000000000000000000000000000000010000000100000000000000100000000000000000000000000000000000000000000000010000000100000000000000000000000100010000000000010000000000000000 $
0%
#220000000
1!
b10001110 #
1%
b10001110 '
0(
0)
b10001110 *
b01110001 +
#230000000
0!
b0000000000000000000000000000010000000000000000000000000000010000000000000000000000000000000000000000000000000000010000010000000100000000000000100000000000000000000000000000000000000000000000010000000100000000000000000000000100010000000000010000000000000000 $
0%
#240000000
1!
b01000111 #
1%
b01000111 '
b01000111 *
b10111000 +
#250000000
0!
b0000000000000000000000000000010000000000000000000000000000010000000000000000000000000000000000000000000000000000010000010000000100000000000000100000000000000000000000000000000000000000100000010000000100000000000000000000000100010000000000010000000000000000 $
0%
#260000000
1!
b00100011 #
1%
b00100011 '
1(
1)
b00100011 *
b11011100 +
#270000000
0!
b0000000000000000000000000000010000000000000000000000000000010000000000000000000000000000000000000000000000000000010000010000000100000000000000100000000000000000000000000000000000000000100000010000000100000000000000000000100100010000000000010000000000000000 $
0%
#280000000
1!
b10010001 #
1%
b10010001 '
0(
0)
b10010001 *
b01101110 +
#290000000
0!
b0000000000000000000000000000010000000000000000000000000000010000000000000000000000000000000000000000000000000010010000010000000100000000000000100000000000000000000000000000000000000000100000010000000100000000000000000000100100010000000000010000000000000000 $
0%
#300000000
1!
b01001000 #
1%
b01001000 '
1(
1)
b01001000 *
b10110111 +
#310000000
0!
b0000000000000000000000000000010000000000000000000000000000010000000000000000000000000000000000000000000000000010010000010000000100000000000000100000000000000000000000000000000000000001100000010000000100000000000000000000100100010000000000010000000000000000 $
0%
#320000000
1!
b10100100 #
1%
b10100100 '
b10100100 *
b01011011 +
#330000000
0!
b0000000000000000000000000000010000000000000000000000000000010000000000000000000000000000000100000000000000000010010000010000000100000000000000100000000000000000000000000000000000000001100000010000000100000000000000000000100100010000000000010000000000000000 $
0%
#340000000
1!
b11010010 #
1%
b11010010 '
b11010010 *
b00101101 +
#350000000
0!
b0000000000000000000000000000010000000000000001000000000000010000000000000000000000000000000100000000000000000010010000010000000100000000000000100000000000000000000000000000000000000001100000010000000100000000000000000000100100010000000000010000000000000000 $
0%
#360000000
1!
b11101001 #
1%
b11101001 '
0(
0)
b11101001 *
b00010110 +
#370000000
0!
b0000000000000000000000100000010000000000000001000000000000010000000000000000000000000000000100000000000000000010010000010000000100000000000000100000000000000000000000000000000000000001100000010000000100000000000000000000100100010000000000010000000000000000 $
0%
#380000000
1!
b01110100 #
1%
b01110100 '
b01110100 *
b10001011 +
#390000000
0!
b0000000000000000000000100000010000000000000001000000000000010000000000000000000000000000000100000000000000000010010000010000000100000000000100100000000000000000000000000000000000000001100000010000000100000000000000000000100100010000000000010000000000000000 $
0%
#400000000
1!
b00111010 #
1%
b00111010 '
b00111010 *
b11000101 +
#410000000
0!
b0000000000000000000000100000010000000000000001000000000000010000000000000000000000000000000100000000000000000010010000010000000100000000000100100000000000000000000000000000000000000001100000010000010100000000000000000000100100010000000000010000000000000000 $
0%
#420000000
1!
b00011101 #
1%
b00011101 '
b00011101 *
b11100010 +
#430000000
0!
b0000000000000000000000100000010000000000000001000000000000010000000000000000000000000000000100000000000000000010010000010000000100000000000100100000000000000000000000000000000000000001100000010000010100000000000000000000100100110000000000010000000000000000 $
0%
#440000000
1!
b00001110 #
1%
b00001110 '
b00001110 *
b11110001 +
#450000000
0!
b0000000000000000000000100000010000000000000001000000000000010000000000000000000000000000000100000000000000000010010000010000000100000000000100100000000000000000000000000000000000000001100000010000010100000000000000000000100100110000000000010100000000000000 $
0%
#460000000
1!
b00000111 #
1%
b00000111 '
b00000111 *
b11111000 +
#470000000
0!
b0000000000000000000000100000010000000000000001000000000000010000000000000000000000000000000100000000000000000010010000010000000100000000000100100000000000000000000000000000000000000001100000010000010100000000000000000000100100110000000000010100000010000000 $
0%
#480000000
1!
b00000011 #
1%
b00000011 '
1(
1)
b00000011 *
b11111100 +
#490000000
0!
b0000000000000000000000100000010000000000000001000000000000010000000000000000000000000000000100000000000000000010010000010000000100000000000100100000000000000000000000000000000000000001100000010000010100000000000000000000100100110000000000010100000010001000 $
0%
#500000000
1!
b10000001 #
1%
b10000001 '
b10000001 *
b01111110 +
#510000000
0!
b0000000000000000000000100000010000000000000001000000000000010000000000000000000000000000000100000000000000000010010000010000001100000000000100100000000000000000000000000000000000000001100000010000010100000000000000000000100100110000000000010100000010001000 $
0%
#520000000
1!
b11000000 #
1%
b11000000 '
0(
0)
b11000000 *
b00111111 +
#530000000
0!
b0000000000000000000000100000010000000000000001000000000000010001000000000000000000000000000100000000000000000010010000010000001100000000000100100000000000000000000000000000000000000001100000010000010100000000000000000000100100110000000000010100000010001000 $
0%
#540000000
1!
b01100000 #
1%
b01100000 '
b01100000 *
b10011111 +
#550000000
0!
b0000000000000000000000100000010000000000000001000000000000010001000000000000000000000000000100000000000000000010010000010000001100000000000100100000000000000001000000000000000000000001100000010000010100000000000000000000100100110000000000010100000010001000 $
0%
#560000000
1!
b00110000 #
1%
b00110000 '
1(
1)
b00110000 *
b11001111 +
#570000000
0!
b0000000000000000000000100000010000000000000001000000000000010001000000000000000000000000000100000000000000000010010000010000001100000000000100100000000000000001000000000000000000000001100000010000010100000001000000000000100100110000000000010100000010001000 $
0%
#580000000
1!
b10011000 #
1%
b10011000 '
0(
0)
b10011000 *
b01100111 +
#590000000
0!
b0000000000000000000000100000010000000000000001000000000000010001000000000000000000000000000100000000000100000010010000010000001100000000000100100000000000000001000000000000000000000001100000010000010100000001000000000000100100110000000000010100000010001000 $
0%
#600000000
1!
b01001100 #
1%
b01001100 '
b01001100 *
b10110011 +
#610000000
0!
b0000000000000000000000100000010000000000000001000000000000010001000000000000000000000000000100000000000100000010010000010000001100000000000100100000000000000001000000000000000000010001100000010000010100000001000000000000100100110000000000010100000010001000 $
0%
#620000000
1!
b00100110 #
1%
b00100110 '
1(
1)
b00100110 *
b11011001 +
#630000000
0!
b0000000000000000000000100000010000000000000001000000000000010001000000000000000000000000000100000000000100000010010000010000001100000000000100100000000000000001000000000000000000010001100000010000010100000001000000000100100100110000000000010100000010001000 $
0%
#640000000
1!
b10010011 #
1%
b10010011 '
0(
0)
b10010011 *
b01101100 +
#650000000
0!
b0000000000000000000000100000010000000000000001000000000000010001000000000000000000000000000100000000000100001010010000010000001100000000000100100000000000000001000000000000000000010001100000010000010100000001000000000100100100110000000000010100000010001000 $
0%
#660000000
1!
b01001001 #
1%
b01001001 '
b01001001 *
b10110110 +
#670000000
0!
b0000000000000000000000100000010000000000000001000000000000010001000000000000000000000000000100000000000100001010010000010000001100000000000100100000000000000001000000000000000000010011100000010000010100000001000000000100100100110000000000010100000010001000 $
0%
#680000000
1!
b00100100 #
1%
b00100100 '
1(
1)
b00100100 *
b11011011 +
#690000000
0!
b0000000000000000000000100000010000000000000001000000000000010001000000000000000000000000000100000000000100001010010000010000001100000000000100100000000000000001000000000000000000010011100000010000010100000001000000000101100100110000000000010100000010001000 $
0%
#700000000
1!
b10010010 #
1%
b10010010 '
b10010010 *
b01101101 +
#710000000
0!
b0000000000000000000000100000010000000000000001000000000000010001000000000000000000000000000100000000000100001110010000010000001100000000000100100000000000000001000000000000000000010011100000010000010100000001000000000101100100110000000000010100000010001000 $
0%
#720000000
1!
b11001001 #
1%
b11001001 '
0(
0)
b11001001 *
b00110110 +
#730000000
0!
b0000000000000000000000100000010000000000000001000000001000010001000000000000000000000000000100000000000100001110010000010000001100000000000100100000000000000001000000000000000000010011100000010000010100000001000000000101100100110000000000010100000010001000 $
0%
#740000000
1!
b01100100 #
1%
b01100100 '
1(
1)
b01100100 *
b10011011 +
#750000000
0!
b0000000000000000000000100000010000000000000001000000001000010001000000000000000000000000000100000000000100001110010000010000001100000000000100100000000000010001000000000000000000010011100000010000010100000001000000000101100100110000000000010100000010001000 $
0%
#760000000
1!
b10110010 #
1%
b10110010 '
b10110010 *
b01001101 +
#770000000
0!
b0000000000000000000000100000010000000000000001000000001000010001000000000000010000000000000100000000000100001110010000010000001100000000000100100000000000010001000000000000000000010011100000010000010100000001000000000101100100110000000000010100000010001000 $
0%
#780000000
1!
b11011001 #
1%
b11011001 '
b11011001 *
b00100110 +
#790000000
0!
b0000000000000000000000100000010000000010000001000000001000010001000000000000010000000000000100000000000100001110010000010000001100000000000100100000000000010001000000000000000000010011100000010000010100000001000000000101100100110000000000010100000010001000 $
0%
#800000000
1!
b11101100 #
1%
b11101100 '
0(
0)
b11101100 *
b00010011 +
#810000000
0!
b0000000000000000000100100000010000000010000001000000001000010001000000000000010000000000000100000000000100001110010000010000001100000000000100100000000000010001000000000000000000010011100000010000010100000001000000000101100100110000000000010100000010001000 $
0%
#820000000
1!
b01110110 #
1%
b01110110 '
b01110110 *
b10001001 +
#830000000
0!
b0000000000000000000100100000010000000010000001000000001000010001000000000000010000000000000100000000000100001110010000010000001100000000010100100000000000010001000000000000000000010011100000010000010100000001000000000101100100110000000000010100000010001000 $
0%
#840000000
1!
b00111011 #
1%
b00111011 '
1(
1)
b00111011 *
b11000100 +
#850000000
0!
b0000000000000000000100100000010000000010000001000000001000010001000000000000010000000000000100000000000100001110010000010000001100000000010100100000000000010001000000000000000000010011100000010000110100000001000000000101100100110000000000010100000010001000 $
0%
#860000000
1!
b10011101 #
1%
b10011101 '
0(
0)
b10011101 *
b01100010 +
#870000000
0!
b0000000000000000000100100000010000000010000001000000001000010001000000000000010000000000000100000010000100001110010000010000001100000000010100100000000000010001000000000000000000010011100000010000110100000001000000000101100100110000000000010100000010001000 $
0%
#880000000
1!
b01001110 #
1%
b01001110 '
b01001110 *
b10110001 +
#890000000
0!
b0000000000000000000100100000010000000010000001000000001000010001000000000000010000000000000100000010000100001110010000010000001100000000010100100000000000010001000000000000000001010011100000010000110100000001000000000101100100110000000000010100000010001000 $
0%
#900000000
1!
b00100111 #
1%
b00100111 '
b00100111 *
b11011000 +
#910000000
0!
b0000000000000000000100100000010000000010000001000000001000010001000000000000010000000000000100000010000100001110010000010000001100000000010100100000000000010001000000000000000001010011100000010000110100000001000000001101100100110000000000010100000010001000 $
0%
#920000000
1!
b00010011 #
1%
b00010011 '
b00010011 *
b11101100 +
#930000000
0!
b0000000000000000000100100000010000000010000001000000001000010001000000000000010000000000000100000010000100001110010000010000001100000000010100100000000000010001000000000000000001010011100000010000110100000001000000001101100100110000000010010100000010001000 $
0%
#940000000
1!
b00001001 #
1%
b00001001 '
b00001001 *
b11110110 +
#950000000
0!
b0000000000000000000100100000010000000010000001000000001000010001000000000000010000000000000100000010000100001110010000010000001100000000010100100000000000010001000000000000000001010011100000010000110100000001000000001101100100110000000010010100001010001000 $
0%
#960000000
1!
b00000100 #
1%
b00000100 '
1(
1)
b00000100 *
b11111011 +
#970000000
0!
b0000000000000000000100100000010000000010000001000000001000010001000000000000010000000000000100000010000100001110010000010000001100000000010100100000000000010001000000000000000001010011100000010000110100000001000000001101100100110000000010010100001010011000 $
0%
#980000000
1!
b10000010 #
1%
b10000010 '
0(
0)
b10000010 *
b01111101 +
#990000000
0!
b0000000000000000000100100000010000000010000001000000001000010001000000000000010000000000000100000010000100001110010000010000011100000000010100100000000000010001000000000000000001010011100000010000110100000001000000001101100100110000000010010100001010011000 $
0%
#1000000000
1!
b01000001 #
1%
b01000001 '
1(
1)
b01000001 *
b10111110 +
#1010000000
0!
b0000000000000000000100100000010000000010000001000000001000010001000000000000010000000000000100000010000100001110010000010000011100000000010100100000000000010001000000000000000001010011100000110000110100000001000000001101100100110000000010010100001010011000 $
0%
#1020000000
1!
b10100000 #
1%
b10100000 '
0(
0)
b10100000 *
b01011111 +
#1030000000
0!
b0000000000000000000100100000010000000010000001000000001000010001000000000000010000000000000100010010000100001110010000010000011100000000010100100000000000010001000000000000000001010011100000110000110100000001000000001101100100110000000010010100001010011000 $
0%
#1040000000
1!
b01010000 #
1%
b01010000 '
1(
1)
b01010000 *
b10101111 +
#1050000000
0!
b0000000000000000000100100000010000000010000001000000001000010001000000000000010000000000000100010010000100001110010000010000011100000000010100100000000000010001000000000000000101010011100000110000110100000001000000001101100100110000000010010100001010011000 $
0%
#1060000000
1!
b10101000 #
1%
b10101000 '
b10101000 *
b01010111 +
#1070000000
0!
b0000000000000000000100100000010000000010000001000000001000010001000000000000010000000001000100010010000100001110010000010000011100000000010100100000000000010001000000000000000101010011100000110000110100000001000000001101100100110000000010010100001010011000 $
0%
#1080000000
1!
b11010100 #
1%
b11010100 '
0(
0)
b11010100 *
b00101011 +
#1090000000
0!
b0000000000000000000100100000010000000010000101000000001000010001000000000000010000000001000100010010000100001110010000010000011100000000010100100000000000010001000000000000000101010011100000110000110100000001000000001101100100110000000010010100001010011000 $
0%
#1100000000
1!
b01101010 #
1%
b01101010 '
1(
1)
b01101010 *
b10010101 +
#1110000000
0!
b0000000000000000000100100000010000000010000101000000001000010001000000000000010000000001000100010010000100001110010000010000011100000000010100100000010000010001000000000000000101010011100000110000110100000001000000001101100100110000000010010100001010011000 $
0%
#1120000000
1!
b10110101 #
1%
b10110101 '
b10110101 *
b01001010 +
#1130000000
0!
b0000000000000000000100100000010000000010000101000000001000010001000000000010010000000001000100010010000100001110010000010000011100000000010100100000010000010001000000000000000101010011100000110000110100000001000000001101100100110000000010010100001010011000 $
0%
#1140000000
1!
b11011010 #
1%
b11011010 '
0(
0)
b11011010 *
b00100101 +
#1150000000
0!
b0000000000000000000100100000010000000110000101000000001000010001000000000010010000000001000100010010000100001110010000010000011100000000010100100000010000010001000000000000000101010011100000110000110100000001000000001101100100110000000010010100001010011000 $
0%
#1160000000
1!
b01101101 #
1%
b01101101 '
1(
1)
b01101101 *
b10010010 +
#1170000000
0!
b0000000000000000000100100000010000000110000101000000001000010001000000000010010000000001000100010010000100001110010000010000011100000000010100100010010000010001000000000000000101010011100000110000110100000001000000001101100100110000000010010100001010011000 $
0%
#1180000000
1!
b10110110 #
1%
b10110110 '
0(
0)
b10110110 *
b01001001 +
#1190000000
0!
b0000000000000000000100100000010000000110000101000000001000010001000000000110010000000001000100010010000100001110010000010000011100000000010100100010010000010001000000000000000101010011100000110000110100000001000000001101100100110000000010010100001010011000 $
0%
#1200000000
1!
b01011011 #
1%
b01011011 '
1(
1)
b01011011 *
b10100100 +
#1210000000
0!
b0000000000000000000100100000010000000110000101000000001000010001000000000110010000000001000100010010000100001110010000010000011100000000010100100010010000010001000010000000000101010011100000110000110100000001000000001101100100110000000010010100001010011000 $
0%
#1220000000
1!
b10101101 #
1%
b10101101 '
b10101101 *
b01010010 +
#1230000000
0!
b0000000000000000000100100000010000000110000101000000001000010001000000000110010000100001000100010010000100001110010000010000011100000000010100100010010000010001000010000000000101010011100000110000110100000001000000001101100100110000000010010100001010011000 $
0%
#1240000000
1!
b11010110 #
1%
b11010110 '
0(
0)
b11010110 *
b00101001 +
#1250000000
0!
b0000000000000000000100100000010000000110010101000000001000010001000000000110010000100001000100010010000100001110010000010000011100000000010100100010010000010001000010000000000101010011100000110000110100000001000000001101100100110000000010010100001010011000 $
0%
#1260000000
1!
b01101011 #
1%
b01101011 '
b01101011 *
b10010100 +
#1270000000
0!
b0000000000000000000100100000010000000110010101000000001000010001000000000110010000100001000100010010000100001110010000010000011100000000010100100010110000010001000010000000000101010011100000110000110100000001000000001101100100110000000010010100001010011000 $
0%
#1280000000
1!
b00110101 #
1%
b00110101 '
1(
1)
b00110101 *
b11001010 +
#1290000000
0!
b0000000000000000000100100000010000000110010101000000001000010001000000000110010000100001000100010010000100001110010000010000011100000000010100100010110000010001000010000000000101010011100000110000110100100001000000001101100100110000000010010100001010011000 $
0%
#1300000000
1!
b10011010 #
1%
b10011010 '
0(
0)
b10011010 *
b01100101 +
#1310000000
0!
b0000000000000000000100100000010000000110010101000000001000010001000000000110010000100001000100010010010100001110010000010000011100000000010100100010110000010001000010000000000101010011100000110000110100100001000000001101100100110000000010010100001010011000 $
0%
#1320000000
1!
b01001101 #
1%
b01001101 '
1(
1)
b01001101 *
b10110010 +
#1330000000
0!
b0000000000000000000100100000010000000110010101000000001000010001000000000110010000100001000100010010010100001110010000010000011100000000010100100010110000010001000010000000000101110011100000110000110100100001000000001101100100110000000010010100001010011000 $
0%
#1340000000
1!
b10100110 #
1%
b10100110 '
b10100110 *
b01011001 +
#1350000000
0!
b0000000000000000000100100000010000000110010101000000001000010001000000000110010000100001010100010010010100001110010000010000011100000000010100100010110000010001000010000000000101110011100000110000110100100001000000001101100100110000000010010100001010011000 $
0%
#1360000000
1!
b11010011 #
1%
b11010011 '
0(
0)
b11010011 *
b00101100 +
#1370000000
0!
b0000000000000000000100100000010000000110010111000000001000010001000000000110010000100001010100010010010100001110010000010000011100000000010100100010110000010001000010000000000101110011100000110000110100100001000000001101100100110000000010010100001010011000 $
0%
#1380000000
1!
b01101001 #
1%
b01101001 '
b01101001 *
b10010110 +
#1390000000
0!
b0000000000000000000100100000010000000110010111000000001000010001000000000110010000100001010100010010010100001110010000010000011100000000010100100010111000010001000010000000000101110011100000110000110100100001000000001101100100110000000010010100001010011000 $
0%
#1400000000
1!
b00110100 #
1%
b00110100 '
b00110100 *
b11001011 +
#1410000000
0!
b0000000000000000000100100000010000000110010111000000001000010001000000000110010000100001010100010010010100001110010000010000011100000000010100100010111000010001000010000000000101110011100000110000110100110001000000001101100100110000000010010100001010011000 $
0%
#1420000000
1!
b00011010 #
1%
b00011010 '
b00011010 *
b11100101 +
#1430000000
0!
b0000000000000000000100100000010000000110010111000000001000010001000000000110010000100001010100010010010100001110010000010000011100000000010100100010111000010001000010000000000101110011100000110000110100110001000000001101100100110100000010010100001010011000 $
0%
#1440000000
1!
b00001101 #
1%
b00001101 '
1(
1)
b00001101 *
b11110010 +
#1450000000
0!
b0000000000000000000100100000010000000110010111000000001000010001000000000110010000100001010100010010010100001110010000010000011100000000010100100010111000010001000010000000000101110011100000110000110100110001000000001101100100110100000010010110001010011000 $
0%
#1460000000
1!
b10000110 #
1%
b10000110 '
b10000110 *
b01111001 +
#1470000000
0!
b0000000000000000000100100000010000000110010111000000001000010001000000000110010000100001010100010010010100001110010000010100011100000000010100100010111000010001000010000000000101110011100000110000110100110001000000001101100100110100000010010110001010011000 $
0%
#1480000000
1!
b11000011 #
1%
b11000011 '
b11000011 *
b00111100 +
#1490000000
0!
b0000000000000000000100100000010000000110010111000000001000011001000000000110010000100001010100010010010100001110010000010100011100000000010100100010111000010001000010000000000101110011100000110000110100110001000000001101100100110100000010010110001010011000 $
0%
#1500000000
1!
b11100001 #
1%
b11100001 '
b11100001 *
b00011110 +
#1510000000
0!
b0000000000000000000100100000011000000110010111000000001000011001000000000110010000100001010100010010010100001110010000010100011100000000010100100010111000010001000010000000000101110011100000110000110100110001000000001101100100110100000010010110001010011000 $
0%
#1520000000
1!
b11110000 #
1%
b11110000 '
b11110000 *
b00001111 +
#1530000000
0!
b0000000000000001000100100000011000000110010111000000001000011001000000000110010000100001010100010010010100001110010000010100011100000000010100100010111000010001000010000000000101110011100000110000110100110001000000001101100100110100000010010110001010011000 $
0%
#1540000000
1!
b11111000 #
1%
b11111000 '
0(
0)
b11111000 *
b00000111 +
#1550000000
0!
b0000000100000001000100100000011000000110010111000000001000011001000000000110010000100001010100010010010100001110010000010100011100000000010100100010111000010001000010000000000101110011100000110000110100110001000000001101100100110100000010010110001010011000 $
0%
#1560000000
1!
b01111100 #
1%
b01111100 '
1(
1)
b01111100 *
b10000011 +
#1570000000
0!
b0000000100000001000100100000011000000110010111000000001000011001000000000110010000100001010100010010010100001110010000010100011100010000010100100010111000010001000010000000000101110011100000110000110100110001000000001101100100110100000010010110001010011000 $
0%
#1580000000
1!
b10111110 #
1%
b10111110 '
b10111110 *
b01000001 +
#1590000000
0!
b0000000100000001000100100000011000000110010111000000001000011001010000000110010000100001010100010010010100001110010000010100011100010000010100100010111000010001000010000000000101110011100000110000110100110001000000001101100100110100000010010110001010011000 $
0%
#1600000000
1!
b11011111 #
1%
b11011111 '
0(
0)
b11011111 *
b00100000 +
#1610000000
0!
b0000000100000001000100100000011010000110010111000000001000011001010000000110010000100001010100010010010100001110010000010100011100010000010100100010111000010001000010000000000101110011100000110000110100110001000000001101100100110100000010010110001010011000 $
0%
#1620000000
1!
b01101111 #
1%
b01101111 '
1(
1)
b01101111 *
b10010000 +
#1630000000
0!
b0000000100000001000100100000011010000110010111000000001000011001010000000110010000100001010100010010010100001110010000010100011100010000010100101010111000010001000010000000000101110011100000110000110100110001000000001101100100110100000010010110001010011000 $
0%
#1640000000
1!
b10110111 #
1%
b10110111 '
b10110111 *
b01001000 +
#1650000000
0!
b0000000100000001000100100000011010000110010111000000001000011001010000001110010000100001010100010010010100001110010000010100011100010000010100101010111000010001000010000000000101110011100000110000110100110001000000001101100100110100000010010110001010011000 $
0%
#1660000000
1!
b11011011 #
1%
b11011011 '
b11011011 *
b00100100 +
#1670000000
0!
b0000000100000001000100100000011010001110010111000000001000011001010000001110010000100001010100010010010100001110010000010100011100010000010100101010111000010001000010000000000101110011100000110000110100110001000000001101100100110100000010010110001010011000 $
0%
#1680000000
1!
b11101101 #
1%
b11101101 '
b11101101 *
b00010010 +
#1690000000
0!
b0000000100000001001100100000011010001110010111000000001000011001010000001110010000100001010100010010010100001110010000010100011100010000010100101010111000010001000010000000000101110011100000110000110100110001000000001101100100110100000010010110001010011000 $
0%
#1700000000
1!
b11110110 #
1%
b11110110 '
0(
0)
b11110110 *
b00001001 +
#1710000000
0!
b0000000101000001001100100000011010001110010111000000001000011001010000001110010000100001010100010010010100001110010000010100011100010000010100101010111000010001000010000000000101110011100000110000110100110001000000001101100100110100000010010110001010011000 $
0%
#1720000000
1!
b01111011 #
1%
b01111011 '
1(
1)
b01111011 *
b10000100 +
#1730000000
0!
b0000000101000001001100100000011010001110010111000000001000011001010000001110010000100001010100010010010100001110010000010100011100011000010100101010111000010001000010000000000101110011100000110000110100110001000000001101100100110100000010010110001010011000 $
0%
#1740000000
1!
b10111101 #
1%
b10111101 '
0(
0)
b10111101 *
b01000010 +
#1750000000
0!
b0000000101000001001100100000011010001110010111000000001000011001011000001110010000100001010100010010010100001110010000010100011100011000010100101010111000010001000010000000000101110011100000110000110100110001000000001101100100110100000010010110001010011000 $
0%
#1760000000
1!
b01011110 #
1%
b01011110 '
1(
1)
b01011110 *
b10100001 +
#1770000000
0!
b0000000101000001001100100000011010001110010111000000001000011001011000001110010000100001010100010010010100001110010000010100011100011000010100101010111000010001010010000000000101110011100000110000110100110001000000001101100100110100000010010110001010011000 $
0%
#1780000000
1!
b10101111 #
1%
b10101111 '
b10101111 *
b01010000 +
#1790000000
0!
b0000000101000001001100100000011010001110010111000000001000011001011000001110010010100001010100010010010100001110010000010100011100011000010100101010111000010001010010000000000101110011100000110000110100110001000000001101100100110100000010010110001010011000 $
0%
#1800000000
1!
b11010111 #
1%
b11010111 '
b11010111 *
b00101000 +
#1810000000
0!
b0000000101000001001100100000011010001110110111000000001000011001011000001110010010100001010100010010010100001110010000010100011100011000010100101010111000010001010010000000000101110011100000110000110100110001000000001101100100110100000010010110001010011000 $
0%
#1820000000
1!
b11101011 #
1%
b11101011 '
0(
0)
b11101011 *
b00010100 +
#1830000000
0!
b0000000101000001001110100000011010001110110111000000001000011001011000001110010010100001010100010010010100001110010000010100011100011000010100101010111000010001010010000000000101110011100000110000110100110001000000001101100100110100000010010110001010011000 $
0%
#1840000000
1!
b01110101 #
1%
b01110101 '
1(
1)
b01110101 *
b10001010 +
#1850000000
0!
b0000000101000001001110100000011010001110110111000000001000011001011000001110010010100001010100010010010100001110010000010100011100011000011100101010111000010001010010000000000101110011100000110000110100110001000000001101100100110100000010010110001010011000 $
0%
#1860000000
1!
b10111010 #
1%
b10111010 '
0(
0)
b10111010 *
b01000101 +
#1870000000
0!
b0000000101000001001110100000011010001110110111000000001000011001011001001110010010100001010100010010010100001110010000010100011100011000011100101010111000010001010010000000000101110011100000110000110100110001000000001101100100110100000010010110001010011000 $
0%
#1880000000
1!
b01011101 #
1%
b01011101 '
b01011101 *
b10100010 +
#1890000000
0!
b0000000101000001001110100000011010001110110111000000001000011001011001001110010010100001010100010010010100001110010000010100011100011000011100101010111000010001011010000000000101110011100000110000110100110001000000001101100100110100000010010110001010011000 $
0%
#1900000000
1!
b00101110 #
1%
b00101110 '
b00101110 *
b11010001 +
#1910000000
0!
b0000000101000001001110100000011010001110110111000000001000011001011001001110010010100001010100010010010100001110010000010100011100011000011100101010111000010001011010000000000101110011100000110000110100110001010000001101100100110100000010010110001010011000 $
0%
#1920000000
1!
b00010111 #
1%
b00010111 '
1(
1)
b00010111 *
b11101000 +
#1930000000
0!
b0000000101000001001110100000011010001110110111000000001000011001011001001110010010100001010100010010010100001110010000010100011100011000011100101010111000010001011010000000000101110011100000110000110100110001010000001101100100110100100010010110001010011000 $
0%
#1940000000
1!
b10001011 #
1%
b10001011 '
0(
0)
b10001011 *
b01110100 +
#1950000000
0!
b0000000101000001001110100000011010001110110111000000001000011001011001001110010010100001010100010010010100001110010010010100011100011000011100101010111000010001011010000000000101110011100000110000110100110001010000001101100100110100100010010110001010011000 $
0%
#1960000000
1!
b01000101 #
1%
b01000101 '
b01000101 *
b10111010 +
#1970000000
0!
b0000000101000001001110100000011010001110110111000000001000011001011001001110010010100001010100010010010100001110010010010100011100011000011100101010111000010001011010000000000101110011101000110000110100110001010000001101100100110100100010010110001010011000 $
0%
#1980000000
1!
b00100010 #
1%
b00100010 '
b00100010 *
b11011101 +
#1990000000
0!
b0000000101000001001110100000011010001110110111000000001000011001011001001110010010100001010100010010010100001110010010010100011100011000011100101010111000010001011010000000000101110011101000110000110100110001010000001101110100110100100010010110001010011000 $
0%
#2000000000
1!
b00010001 #
1%
b00010001 '
b00010001 *
b11101110 +
#2010000000
0!
b0000000101000001001110100000011010001110110111000000001000011001011001001110010010100001010100010010010100001110010010010100011100011000011100101010111000010001011010000000000101110011101000110000110100110001010000001101110100110100100010110110001010011000 $
0%
#2020000000
1!
b00001000 #
1%
b00001000 '
1(
1)
b00001000 *
b11110111 +
#2030000000
0!
b0000000101000001001110100000011010001110110111000000001000011001011001001110010010100001010100010010010100001110010010010100011100011000011100101010111000010001011010000000000101110011101000110000110100110001010000001101110100110100100010110110001110011000 $
0%
