exII2/wave.vcd
$date
  Wed Dec  6 13:41:48 2017
$end
$version
  GHDL v0
$end
$timescale
  1 fs
$end
$var reg 1 ! clk_tb $end
$var reg 1 " res_tb $end
$var reg 1 # out_tb $end
$scope module duv $end
$var reg 1 $ clk_i $end
$var reg 1 % rst_i $end
$var reg 1 & out_o $end
$var reg 2 ' q_s[1:0] $end
$var reg 2 ( not_q_s[1:0] $end
$var reg 2 ) clk_in_s[1:0] $end
$var reg 2 * d_in[1:0] $end
$scope module for1(0) $end
$upscope $end
$scope module for1(1) $end
$upscope $end
$upscope $end
$enddefinitions $end
#0
1!
1"
0#
1$
1%
0&
b00 '
b11 (
b01 )
b11 *
#10000000
0!
0"
0$
0%
b00 )
#20000000
1!
1$
b01 )
#21000000
b01 '
b10 (
b11 )
b10 *
#22000000
b11 '
b00 (
b00 *
#30000000
0!
0$
b10 )
#40000000
1!
1#
1$
1&
b11 )
#41000000
b10 '
b01 (
b01 )
b01 *
#50000000
0!
0$
b00 )
#60000000
1!
1$
b01 )
#61000000
b11 '
b00 (
b11 )
b00 *
#62000000
b01 '
b10 (
b10 *
#70000000
0!
0$
b10 )
#80000000
1!
0#
1$
0&
b11 )
#81000000
b00 '
b11 (
b01 )
b11 *
#90000000
0!
0$
b00 )
#100000000
1!
1$
b01 )
#101000000
b01 '
b10 (
b11 )
b10 *
#102000000
b11 '
b00 (
b00 *
#110000000
0!
0$
b10 )
#120000000
1!
1#
1$
1&
b11 )
#121000000
b10 '
b01 (
b01 )
b01 *
#130000000
0!
0$
b00 )
#140000000
1!
1$
b01 )
#141000000
b11 '
b00 (
b11 )
b00 *
#142000000
b01 '
b10 (
b10 *
#150000000
0!
0$
b10 )
#160000000
1!
0#
1$
0&
b11 )
#161000000
b00 '
b11 (
b01 )
b11 *
#170000000
0!
0$
b00 )
#180000000
1!
1$
b01 )
#181000000
b01 '
b10 (
b11 )
b10 *
#182000000
b11 '
b00 (
b00 *
#190000000
0!
0$
b10 )
#200000000
1!
1#
1$
1&
b11 )
#201000000
b10 '
b01 (
b01 )
b01 *
#210000000
0!
0$
b00 )
#220000000
1!
1$
b01 )
#221000000
b11 '
b00 (
b11 )
b00 *
#222000000
b01 '
b10 (
b10 *
#230000000
0!
0$
b10 )
#240000000
1!
0#
1$
0&
b11 )
#241000000
b00 '
b11 (
b01 )
b11 *
#250000000
0!
0$
b00 )
#260000000
1!
1$
b01 )
#261000000
b01 '
b10 (
b11 )
b10 *
#262000000
b11 '
b00 (
b00 *
#270000000
0!
0$
b10 )
#280000000
1!
1#
1$
1&
b11 )
#281000000
b10 '
b01 (
b01 )
b01 *
#290000000
0!
0$
b00 )
#300000000
1!
1$
b01 )
#301000000
b11 '
b00 (
b11 )
b00 *
#302000000
b01 '
b10 (
b10 *
#310000000
0!
0$
b10 )
#320000000
1!
0#
1$
0&
b11 )
#321000000
b00 '
b11 (
b01 )
b11 *
#330000000
0!
0$
b00 )
#340000000
1!
1$
b01 )
#341000000
b01 '
b10 (
b11 )
b10 *
#342000000
b11 '
b00 (
b00 *
#350000000
0!
0$
b10 )
#360000000
1!
1#
1$
1&
b11 )
#361000000
b10 '
b01 (
b01 )
b01 *
#370000000
0!
0$
b00 )
#380000000
1!
1$
b01 )
#381000000
b11 '
b00 (
b11 )
b00 *
#382000000
b01 '
b10 (
b10 *
#390000000
0!
0$
b10 )
#400000000
1!
0#
1$
0&
b11 )
#401000000
b00 '
b11 (
b01 )
b11 *
