exI3/wave.vcd
$date
  Tue Dec 12 09:16:00 2017
$end
$version
  GHDL v0
$end
$timescale
  1 fs
$end
$var reg 8 ! opa_tb[7:0] $end
$var reg 8 " res_tb[7:0] $end
$var reg 8 # res_exp[7:0] $end
$var reg 2 $ cmd_tb[1:0] $end
$comment cmd_name is not handled $end
$var reg 3 % amt_tb[2:0] $end
$scope module duv $end
$var reg 8 & in_i[7:0] $end
$var reg 2 ' cmd_i[1:0] $end
$var reg 3 ( amt_i[2:0] $end
$var reg 8 ) out_o[7:0] $end
$comment right_part is not handled $end
$comment lsr_res is not handled $end
$comment asr_res is not handled $end
$comment rr_res is not handled $end
$var integer 32 * mat_index $end
$scope module for1(0) $end
$scope module if2 $end
$upscope $end
$upscope $end
$scope module for1(1) $end
$scope module if1 $end
$upscope $end
$upscope $end
$scope module for1(2) $end
$scope module if1 $end
$upscope $end
$upscope $end
$scope module for1(3) $end
$scope module if1 $end
$upscope $end
$upscope $end
$scope module for1(4) $end
$scope module if1 $end
$upscope $end
$upscope $end
$scope module for1(5) $end
$scope module if1 $end
$upscope $end
$upscope $end
$scope module for1(6) $end
$scope module if1 $end
$upscope $end
$upscope $end
$scope module for1(7) $end
$scope module if1 $end
$upscope $end
$upscope $end
$upscope $end
$enddefinitions $end
#0
b11001110 !
b00000000 "
b00000000 #
bUU $
bUUU %
b11001110 &
bUU '
bUUU (
b00000000 )
b0 *
#10000000
b11001110 "
b11001110 #
b00 $
b000 %
b00 '
b000 (
b11001110 )
#20000000
#25000000
b01 $
b01 '
#35000000
#40000000
b10 $
b10 '
#50000000
#55000000
b01100111 "
b01100111 #
b00 $
b001 %
b00 '
b001 (
b01100111 )
b1 *
#65000000
#70000000
b11100111 "
b11100111 #
b01 $
b01 '
b11100111 )
#80000000
#85000000
b01100111 "
b01100111 #
b10 $
b10 '
b01100111 )
#95000000
#100000000
b00110011 "
b00110011 #
b00 $
b010 %
b00 '
b010 (
b00110011 )
b10 *
#110000000
#115000000
b11110011 "
b11110011 #
b01 $
b01 '
b11110011 )
#125000000
#130000000
b10110011 "
b10110011 #
b10 $
b10 '
b10110011 )
#140000000
#145000000
b00011001 "
b00011001 #
b00 $
b011 %
b00 '
b011 (
b00011001 )
b11 *
#155000000
#160000000
b11111001 "
b11111001 #
b01 $
b01 '
b11111001 )
#170000000
#175000000
b11011001 "
b11011001 #
b10 $
b10 '
b11011001 )
#185000000
#190000000
b00001100 "
b00001100 #
b00 $
b100 %
b00 '
b100 (
b00001100 )
b100 *
#200000000
#205000000
b11111100 "
b11111100 #
b01 $
b01 '
b11111100 )
#215000000
#220000000
b11101100 "
b11101100 #
b10 $
b10 '
b11101100 )
#230000000
#235000000
b00000110 "
b00000110 #
b00 $
b101 %
b00 '
b101 (
b00000110 )
b101 *
#245000000
#250000000
b11111110 "
b11111110 #
b01 $
b01 '
b11111110 )
#260000000
#265000000
b01110110 "
b01110110 #
b10 $
b10 '
b01110110 )
#275000000
#280000000
b00000011 "
b00000011 #
b00 $
b110 %
b00 '
b110 (
b00000011 )
b110 *
#290000000
#295000000
b11111111 "
b11111111 #
b01 $
b01 '
b11111111 )
#305000000
#310000000
b00111011 "
b00111011 #
b10 $
b10 '
b00111011 )
#320000000
#325000000
b00000001 "
b00000001 #
b00 $
b111 %
b00 '
b111 (
b00000001 )
b111 *
#335000000
#340000000
b11111111 "
b11111111 #
b01 $
b01 '
b11111111 )
#350000000
#355000000
b10011101 "
b10011101 #
b10 $
b10 '
b10011101 )
