exI2/wave.vcd
$date
  Tue Dec  5 15:46:58 2017
$end
$version
  GHDL v0
$end
$timescale
  1 fs
$end
$var reg 8 ! req_tb[7:0] $end
$var reg 3 " code_comb[2:0] $end
$var reg 1 # valid_comb $end
$var reg 3 $ code_algo[2:0] $end
$var reg 1 % valid_algo $end
$scope module duv1 $end
$var reg 8 & req[7:0] $end
$var reg 3 ' code[2:0] $end
$var reg 1 ( valid $end
$var reg 1 ) valid_s $end
$var reg 3 * code_s[2:0] $end
$upscope $end
$scope module duv2 $end
$var reg 8 + req[7:0] $end
$var reg 3 , code[2:0] $end
$var reg 1 - valid $end
$var reg 3 . code_s[2:0] $end
$var reg 1 / valid_s $end
$comment mask is not handled $end
$comment compute is not handled $end
$comment valid_out is not handled $end
$var reg 8 0 check_valid[7:0] $end
$scope module for1(0) $end
$scope module for2(0) $end
$scope module if2 $end
$upscope $end
$upscope $end
$scope module for2(1) $end
$scope module if1 $end
$upscope $end
$upscope $end
$scope module for2(2) $end
$scope module if2 $end
$upscope $end
$upscope $end
$scope module for2(3) $end
$scope module if1 $end
$upscope $end
$upscope $end
$scope module for2(4) $end
$scope module if2 $end
$upscope $end
$upscope $end
$scope module for2(5) $end
$scope module if1 $end
$upscope $end
$upscope $end
$scope module for2(6) $end
$scope module if2 $end
$upscope $end
$upscope $end
$scope module for2(7) $end
$scope module if1 $end
$upscope $end
$upscope $end
$upscope $end
$scope module for1(1) $end
$scope module for2(0) $end
$scope module if2 $end
$upscope $end
$upscope $end
$scope module for2(1) $end
$scope module if2 $end
$upscope $end
$upscope $end
$scope module for2(2) $end
$scope module if1 $end
$upscope $end
$upscope $end
$scope module for2(3) $end
$scope module if1 $end
$upscope $end
$upscope $end
$scope module for2(4) $end
$scope module if2 $end
$upscope $end
$upscope $end
$scope module for2(5) $end
$scope module if2 $end
$upscope $end
$upscope $end
$scope module for2(6) $end
$scope module if1 $end
$upscope $end
$upscope $end
$scope module for2(7) $end
$scope module if1 $end
$upscope $end
$upscope $end
$upscope $end
$scope module for1(2) $end
$scope module for2(0) $end
$scope module if2 $end
$upscope $end
$upscope $end
$scope module for2(1) $end
$scope module if2 $end
$upscope $end
$upscope $end
$scope module for2(2) $end
$scope module if2 $end
$upscope $end
$upscope $end
$scope module for2(3) $end
$scope module if2 $end
$upscope $end
$upscope $end
$scope module for2(4) $end
$scope module if1 $end
$upscope $end
$upscope $end
$scope module for2(5) $end
$scope module if1 $end
$upscope $end
$upscope $end
$scope module for2(6) $end
$scope module if1 $end
$upscope $end
$upscope $end
$scope module for2(7) $end
$scope module if1 $end
$upscope $end
$upscope $end
$upscope $end
$scope module for3(0) $end
$upscope $end
$scope module for3(1) $end
$upscope $end
$scope module for3(2) $end
$upscope $end
$scope module for4(0) $end
$upscope $end
$scope module for4(1) $end
$upscope $end
$scope module for4(2) $end
$upscope $end
$scope module for5(0) $end
$upscope $end
$scope module for5(1) $end
$upscope $end
$scope module for5(2) $end
$upscope $end
$scope module for5(3) $end
$upscope $end
$scope module for5(4) $end
$upscope $end
$scope module for5(5) $end
$upscope $end
$scope module for5(6) $end
$upscope $end
$scope module for5(7) $end
$upscope $end
$upscope $end
$enddefinitions $end
#0
b00000000 !
b000 "
0#
b000 $
0%
b00000000 &
b000 '
0(
0)
b000 *
b00000000 +
b000 ,
0-
bUUU .
0/
b00000000 0
#2000000
b00000001 !
1#
1%
b00000001 &
1(
1)
b00000001 +
1-
1/
b00000001 0
#4000000
b00000010 !
b001 "
b001 $
b00000010 &
b001 '
b001 *
b00000010 +
b001 ,
b00000010 0
#6000000
b00000011 !
b000 "
0#
b000 $
0%
b00000011 &
b000 '
0(
0)
b00000011 +
b000 ,
0-
0/
b00000000 0
#8000000
b00000100 !
b010 "
1#
b010 $
1%
b00000100 &
b010 '
1(
1)
b010 *
b00000100 +
b010 ,
1-
1/
b00000100 0
#10000000
b00000101 !
b000 "
0#
b000 $
0%
b00000101 &
b000 '
0(
0)
b00000101 +
b000 ,
0-
0/
b00000000 0
#12000000
b00000110 !
b00000110 &
b011 *
b00000110 +
#14000000
b00000111 !
b00000111 &
b00000111 +
#16000000
b00001000 !
b011 "
1#
b011 $
1%
b00001000 &
b011 '
1(
1)
b00001000 +
b011 ,
1-
1/
b00001000 0
#18000000
b00001001 !
b000 "
0#
b000 $
0%
b00001001 &
b000 '
0(
0)
b00001001 +
b000 ,
0-
0/
b00000000 0
#20000000
b00001010 !
b00001010 &
b00001010 +
#22000000
b00001011 !
b00001011 &
b00001011 +
#24000000
b00001100 !
b00001100 &
b00001100 +
#26000000
b00001101 !
b00001101 &
b00001101 +
#28000000
b00001110 !
b00001110 &
b00001110 +
#30000000
b00001111 !
b00001111 &
b00001111 +
#32000000
b00010000 !
b100 "
1#
b100 $
1%
b00010000 &
b100 '
1(
1)
b100 *
b00010000 +
b100 ,
1-
1/
b00010000 0
#34000000
b00010001 !
b000 "
0#
b000 $
0%
b00010001 &
b000 '
0(
0)
b00010001 +
b000 ,
0-
0/
b00000000 0
#36000000
b00010010 !
b00010010 &
b101 *
b00010010 +
#38000000
b00010011 !
b00010011 &
b00010011 +
#40000000
b00010100 !
b00010100 &
b110 *
b00010100 +
#42000000
b00010101 !
b00010101 &
b00010101 +
#44000000
b00010110 !
b00010110 &
b111 *
b00010110 +
#46000000
b00010111 !
b00010111 &
b00010111 +
#48000000
b00011000 !
b00011000 &
b00011000 +
#50000000
b00011001 !
b00011001 &
b00011001 +
#52000000
b00011010 !
b00011010 &
b00011010 +
#54000000
b00011011 !
b00011011 &
b00011011 +
#56000000
b00011100 !
b00011100 &
b00011100 +
#58000000
b00011101 !
b00011101 &
b00011101 +
#60000000
b00011110 !
b00011110 &
b00011110 +
#62000000
b00011111 !
b00011111 &
b00011111 +
#64000000
b00100000 !
b101 "
1#
b101 $
1%
b00100000 &
b101 '
1(
1)
b101 *
b00100000 +
b101 ,
1-
1/
b00100000 0
#66000000
b00100001 !
b000 "
0#
b000 $
0%
b00100001 &
b000 '
0(
0)
b00100001 +
b000 ,
0-
0/
b00000000 0
#68000000
b00100010 !
b00100010 &
b00100010 +
#70000000
b00100011 !
b00100011 &
b00100011 +
#72000000
b00100100 !
b00100100 &
b111 *
b00100100 +
#74000000
b00100101 !
b00100101 &
b00100101 +
#76000000
b00100110 !
b00100110 &
b00100110 +
#78000000
b00100111 !
b00100111 &
b00100111 +
#80000000
b00101000 !
b00101000 &
b00101000 +
#82000000
b00101001 !
b00101001 &
b00101001 +
#84000000
b00101010 !
b00101010 &
b00101010 +
#86000000
b00101011 !
b00101011 &
b00101011 +
#88000000
b00101100 !
b00101100 &
b00101100 +
#90000000
b00101101 !
b00101101 &
b00101101 +
#92000000
b00101110 !
b00101110 &
b00101110 +
#94000000
b00101111 !
b00101111 &
b00101111 +
#96000000
b00110000 !
b00110000 &
b101 *
b00110000 +
#98000000
b00110001 !
b00110001 &
b00110001 +
#100000000
b00110010 !
b00110010 &
b00110010 +
#102000000
b00110011 !
b00110011 &
b00110011 +
#104000000
b00110100 !
b00110100 &
b111 *
b00110100 +
#106000000
b00110101 !
b00110101 &
b00110101 +
#108000000
b00110110 !
b00110110 &
b00110110 +
#110000000
b00110111 !
b00110111 &
b00110111 +
#112000000
b00111000 !
b00111000 &
b00111000 +
#114000000
b00111001 !
b00111001 &
b00111001 +
#116000000
b00111010 !
b00111010 &
b00111010 +
#118000000
b00111011 !
b00111011 &
b00111011 +
#120000000
b00111100 !
b00111100 &
b00111100 +
#122000000
b00111101 !
b00111101 &
b00111101 +
#124000000
b00111110 !
b00111110 &
b00111110 +
#126000000
b00111111 !
b00111111 &
b00111111 +
#128000000
b01000000 !
b110 "
1#
b110 $
1%
b01000000 &
b110 '
1(
1)
b110 *
b01000000 +
b110 ,
1-
1/
b01000000 0
#130000000
b01000001 !
b000 "
0#
b000 $
0%
b01000001 &
b000 '
0(
0)
b01000001 +
b000 ,
0-
0/
b00000000 0
#132000000
b01000010 !
b01000010 &
b111 *
b01000010 +
#134000000
b01000011 !
b01000011 &
b01000011 +
#136000000
b01000100 !
b01000100 &
b110 *
b01000100 +
#138000000
b01000101 !
b01000101 &
b01000101 +
#140000000
b01000110 !
b01000110 &
b111 *
b01000110 +
#142000000
b01000111 !
b01000111 &
b01000111 +
#144000000
b01001000 !
b01001000 &
b01001000 +
#146000000
b01001001 !
b01001001 &
b01001001 +
#148000000
b01001010 !
b01001010 &
b01001010 +
#150000000
b01001011 !
b01001011 &
b01001011 +
#152000000
b01001100 !
b01001100 &
b01001100 +
#154000000
b01001101 !
b01001101 &
b01001101 +
#156000000
b01001110 !
b01001110 &
b01001110 +
#158000000
b01001111 !
b01001111 &
b01001111 +
#160000000
b01010000 !
b01010000 &
b110 *
b01010000 +
#162000000
b01010001 !
b01010001 &
b01010001 +
#164000000
b01010010 !
b01010010 &
b111 *
b01010010 +
#166000000
b01010011 !
b01010011 &
b01010011 +
#168000000
b01010100 !
b01010100 &
b110 *
b01010100 +
#170000000
b01010101 !
b01010101 &
b01010101 +
#172000000
b01010110 !
b01010110 &
b111 *
b01010110 +
#174000000
b01010111 !
b01010111 &
b01010111 +
#176000000
b01011000 !
b01011000 &
b01011000 +
#178000000
b01011001 !
b01011001 &
b01011001 +
#180000000
b01011010 !
b01011010 &
b01011010 +
#182000000
b01011011 !
b01011011 &
b01011011 +
#184000000
b01011100 !
b01011100 &
b01011100 +
#186000000
b01011101 !
b01011101 &
b01011101 +
#188000000
b01011110 !
b01011110 &
b01011110 +
#190000000
b01011111 !
b01011111 &
b01011111 +
#192000000
b01100000 !
b01100000 &
b01100000 +
#194000000
b01100001 !
b01100001 &
b01100001 +
#196000000
b01100010 !
b01100010 &
b01100010 +
#198000000
b01100011 !
b01100011 &
b01100011 +
#200000000
b01100100 !
b01100100 &
b01100100 +
#202000000
b01100101 !
b01100101 &
b01100101 +
#204000000
b01100110 !
b01100110 &
b01100110 +
#206000000
b01100111 !
b01100111 &
b01100111 +
#208000000
b01101000 !
b01101000 &
b01101000 +
#210000000
b01101001 !
b01101001 &
b01101001 +
#212000000
b01101010 !
b01101010 &
b01101010 +
#214000000
b01101011 !
b01101011 &
b01101011 +
#216000000
b01101100 !
b01101100 &
b01101100 +
#218000000
b01101101 !
b01101101 &
b01101101 +
#220000000
b01101110 !
b01101110 &
b01101110 +
#222000000
b01101111 !
b01101111 &
b01101111 +
#224000000
b01110000 !
b01110000 &
b01110000 +
#226000000
b01110001 !
b01110001 &
b01110001 +
#228000000
b01110010 !
b01110010 &
b01110010 +
#230000000
b01110011 !
b01110011 &
b01110011 +
#232000000
b01110100 !
b01110100 &
b01110100 +
#234000000
b01110101 !
b01110101 &
b01110101 +
#236000000
b01110110 !
b01110110 &
b01110110 +
#238000000
b01110111 !
b01110111 &
b01110111 +
#240000000
b01111000 !
b01111000 &
b01111000 +
#242000000
b01111001 !
b01111001 &
b01111001 +
#244000000
b01111010 !
b01111010 &
b01111010 +
#246000000
b01111011 !
b01111011 &
b01111011 +
#248000000
b01111100 !
b01111100 &
b01111100 +
#250000000
b01111101 !
b01111101 &
b01111101 +
#252000000
b01111110 !
b01111110 &
b01111110 +
#254000000
b01111111 !
b01111111 &
b01111111 +
#256000000
b10000000 !
b111 "
1#
b111 $
1%
b10000000 &
b111 '
1(
1)
b10000000 +
b111 ,
1-
1/
b10000000 0
#258000000
b10000001 !
b000 "
0#
b000 $
0%
b10000001 &
b000 '
0(
0)
b10000001 +
b000 ,
0-
0/
b00000000 0
#260000000
b10000010 !
b10000010 &
b10000010 +
#262000000
b10000011 !
b10000011 &
b10000011 +
#264000000
b10000100 !
b10000100 &
b10000100 +
#266000000
b10000101 !
b10000101 &
b10000101 +
#268000000
b10000110 !
b10000110 &
b10000110 +
#270000000
b10000111 !
b10000111 &
b10000111 +
#272000000
b10001000 !
b10001000 &
b10001000 +
#274000000
b10001001 !
b10001001 &
b10001001 +
#276000000
b10001010 !
b10001010 &
b10001010 +
#278000000
b10001011 !
b10001011 &
b10001011 +
#280000000
b10001100 !
b10001100 &
b10001100 +
#282000000
b10001101 !
b10001101 &
b10001101 +
#284000000
b10001110 !
b10001110 &
b10001110 +
#286000000
b10001111 !
b10001111 &
b10001111 +
#288000000
b10010000 !
b10010000 &
b10010000 +
#290000000
b10010001 !
b10010001 &
b10010001 +
#292000000
b10010010 !
b10010010 &
b10010010 +
#294000000
b10010011 !
b10010011 &
b10010011 +
#296000000
b10010100 !
b10010100 &
b10010100 +
#298000000
b10010101 !
b10010101 &
b10010101 +
#300000000
b10010110 !
b10010110 &
b10010110 +
#302000000
b10010111 !
b10010111 &
b10010111 +
#304000000
b10011000 !
b10011000 &
b10011000 +
#306000000
b10011001 !
b10011001 &
b10011001 +
#308000000
b10011010 !
b10011010 &
b10011010 +
#310000000
b10011011 !
b10011011 &
b10011011 +
#312000000
b10011100 !
b10011100 &
b10011100 +
#314000000
b10011101 !
b10011101 &
b10011101 +
#316000000
b10011110 !
b10011110 &
b10011110 +
#318000000
b10011111 !
b10011111 &
b10011111 +
#320000000
b10100000 !
b10100000 &
b10100000 +
#322000000
b10100001 !
b10100001 &
b10100001 +
#324000000
b10100010 !
b10100010 &
b10100010 +
#326000000
b10100011 !
b10100011 &
b10100011 +
#328000000
b10100100 !
b10100100 &
b10100100 +
#330000000
b10100101 !
b10100101 &
b10100101 +
#332000000
b10100110 !
b10100110 &
b10100110 +
#334000000
b10100111 !
b10100111 &
b10100111 +
#336000000
b10101000 !
b10101000 &
b10101000 +
#338000000
b10101001 !
b10101001 &
b10101001 +
#340000000
b10101010 !
b10101010 &
b10101010 +
#342000000
b10101011 !
b10101011 &
b10101011 +
#344000000
b10101100 !
b10101100 &
b10101100 +
#346000000
b10101101 !
b10101101 &
b10101101 +
#348000000
b10101110 !
b10101110 &
b10101110 +
#350000000
b10101111 !
b10101111 &
b10101111 +
#352000000
b10110000 !
b10110000 &
b10110000 +
#354000000
b10110001 !
b10110001 &
b10110001 +
#356000000
b10110010 !
b10110010 &
b10110010 +
#358000000
b10110011 !
b10110011 &
b10110011 +
#360000000
b10110100 !
b10110100 &
b10110100 +
#362000000
b10110101 !
b10110101 &
b10110101 +
#364000000
b10110110 !
b10110110 &
b10110110 +
#366000000
b10110111 !
b10110111 &
b10110111 +
#368000000
b10111000 !
b10111000 &
b10111000 +
#370000000
b10111001 !
b10111001 &
b10111001 +
#372000000
b10111010 !
b10111010 &
b10111010 +
#374000000
b10111011 !
b10111011 &
b10111011 +
#376000000
b10111100 !
b10111100 &
b10111100 +
#378000000
b10111101 !
b10111101 &
b10111101 +
#380000000
b10111110 !
b10111110 &
b10111110 +
#382000000
b10111111 !
b10111111 &
b10111111 +
#384000000
b11000000 !
b11000000 &
b11000000 +
#386000000
b11000001 !
b11000001 &
b11000001 +
#388000000
b11000010 !
b11000010 &
b11000010 +
#390000000
b11000011 !
b11000011 &
b11000011 +
#392000000
b11000100 !
b11000100 &
b11000100 +
#394000000
b11000101 !
b11000101 &
b11000101 +
#396000000
b11000110 !
b11000110 &
b11000110 +
#398000000
b11000111 !
b11000111 &
b11000111 +
#400000000
b11001000 !
b11001000 &
b11001000 +
#402000000
b11001001 !
b11001001 &
b11001001 +
#404000000
b11001010 !
b11001010 &
b11001010 +
#406000000
b11001011 !
b11001011 &
b11001011 +
#408000000
b11001100 !
b11001100 &
b11001100 +
#410000000
b11001101 !
b11001101 &
b11001101 +
#412000000
b11001110 !
b11001110 &
b11001110 +
#414000000
b11001111 !
b11001111 &
b11001111 +
#416000000
b11010000 !
b11010000 &
b11010000 +
#418000000
b11010001 !
b11010001 &
b11010001 +
#420000000
b11010010 !
b11010010 &
b11010010 +
#422000000
b11010011 !
b11010011 &
b11010011 +
#424000000
b11010100 !
b11010100 &
b11010100 +
#426000000
b11010101 !
b11010101 &
b11010101 +
#428000000
b11010110 !
b11010110 &
b11010110 +
#430000000
b11010111 !
b11010111 &
b11010111 +
#432000000
b11011000 !
b11011000 &
b11011000 +
#434000000
b11011001 !
b11011001 &
b11011001 +
#436000000
b11011010 !
b11011010 &
b11011010 +
#438000000
b11011011 !
b11011011 &
b11011011 +
#440000000
b11011100 !
b11011100 &
b11011100 +
#442000000
b11011101 !
b11011101 &
b11011101 +
#444000000
b11011110 !
b11011110 &
b11011110 +
#446000000
b11011111 !
b11011111 &
b11011111 +
#448000000
b11100000 !
b11100000 &
b11100000 +
#450000000
b11100001 !
b11100001 &
b11100001 +
#452000000
b11100010 !
b11100010 &
b11100010 +
#454000000
b11100011 !
b11100011 &
b11100011 +
#456000000
b11100100 !
b11100100 &
b11100100 +
#458000000
b11100101 !
b11100101 &
b11100101 +
#460000000
b11100110 !
b11100110 &
b11100110 +
#462000000
b11100111 !
b11100111 &
b11100111 +
#464000000
b11101000 !
b11101000 &
b11101000 +
#466000000
b11101001 !
b11101001 &
b11101001 +
#468000000
b11101010 !
b11101010 &
b11101010 +
#470000000
b11101011 !
b11101011 &
b11101011 +
#472000000
b11101100 !
b11101100 &
b11101100 +
#474000000
b11101101 !
b11101101 &
b11101101 +
#476000000
b11101110 !
b11101110 &
b11101110 +
#478000000
b11101111 !
b11101111 &
b11101111 +
#480000000
b11110000 !
b11110000 &
b11110000 +
#482000000
b11110001 !
b11110001 &
b11110001 +
#484000000
b11110010 !
b11110010 &
b11110010 +
#486000000
b11110011 !
b11110011 &
b11110011 +
#488000000
b11110100 !
b11110100 &
b11110100 +
#490000000
b11110101 !
b11110101 &
b11110101 +
#492000000
b11110110 !
b11110110 &
b11110110 +
#494000000
b11110111 !
b11110111 &
b11110111 +
#496000000
b11111000 !
b11111000 &
b11111000 +
#498000000
b11111001 !
b11111001 &
b11111001 +
#500000000
b11111010 !
b11111010 &
b11111010 +
#502000000
b11111011 !
b11111011 &
b11111011 +
#504000000
b11111100 !
b11111100 &
b11111100 +
#506000000
b11111101 !
b11111101 &
b11111101 +
#508000000
b11111110 !
b11111110 &
b11111110 +
#510000000
b11111111 !
b11111111 &
b11111111 +
