exII1/wave.vcd
$date
  Wed Nov 22 09:04:09 2017
$end
$version
  GHDL v0
$end
$timescale
  1 fs
$end
$var reg 1 ! clk_tb $end
$var reg 1 " res_tb $end
$var reg 5 # out_tb[4:0] $end
$scope module duv $end
$var reg 1 $ clk_i $end
$var reg 1 % rst_i $end
$var reg 1 & max_o $end
$var reg 5 ' out_o[4:0] $end
$var reg 5 ( next_state[4:0] $end
$upscope $end
$enddefinitions $end
#0
1!
1"
b00000 #
1$
1%
0&
b00000 '
b00000 (
#10000000
0!
0"
0$
0%
#20000000
1!
b00001 #
1$
b00001 '
b00001 (
#30000000
0!
0$
#40000000
1!
b00011 #
1$
b00011 '
b00011 (
#50000000
0!
0$
#60000000
1!
b00111 #
1$
b00111 '
b00111 (
#70000000
0!
0$
#80000000
1!
b01111 #
1$
b01111 '
b01111 (
#90000000
0!
0$
#100000000
1!
b11111 #
1$
b11111 '
b11111 (
#110000000
0!
0$
#120000000
1!
b11110 #
1$
b11110 '
b11110 (
#130000000
0!
0$
#140000000
1!
b11100 #
1$
b11100 '
b11100 (
#150000000
0!
0$
#160000000
1!
b11000 #
1$
b11000 '
b11000 (
#170000000
0!
0$
#180000000
1!
b10000 #
1$
1&
b10000 '
b10000 (
#190000000
0!
0$
1&
#200000000
1!
b00000 #
1$
0&
b00000 '
b00000 (
#210000000
0!
0$
#220000000
1!
b00001 #
1$
b00001 '
b00001 (
#230000000
0!
0$
#240000000
1!
b00011 #
1$
b00011 '
b00011 (
#250000000
0!
0$
#260000000
1!
b00111 #
1$
b00111 '
b00111 (
#270000000
0!
0$
#280000000
1!
b01111 #
1$
b01111 '
b01111 (
#290000000
0!
0$
#300000000
1!
b11111 #
1$
b11111 '
b11111 (
#310000000
0!
0$
#320000000
1!
b11110 #
1$
b11110 '
b11110 (
#330000000
0!
0$
#340000000
1!
b11100 #
1$
b11100 '
b11100 (
#350000000
0!
0$
#360000000
1!
b11000 #
1$
b11000 '
b11000 (
#370000000
0!
0$
#380000000
1!
b10000 #
1$
1&
b10000 '
b10000 (
#390000000
0!
0$
1&
#400000000
1!
b00000 #
1$
0&
b00000 '
b00000 (
